<?xml version="1.0" standalone="no"?>
 <!DOCTYPE svg PUBLIC "-//W3C//DTD SVG 1.1//EN" 
 "http://www.w3.org/Graphics/SVG/1.1/DTD/svg11.dtd"> 
<svg
  xmlns:svg="http://www.w3.org/2000/svg"
  xmlns="http://www.w3.org/2000/svg"
  xmlns:xlink="http://www.w3.org/1999/xlink"
  version="1.1"
  width="19.0754mm" height="22.8854mm" viewBox="0.0000 0.0000 19.0754 22.8854">
<title>SVG Image created as herovco_switchPCB_back.svg date 2024/03/24 10:52:54 </title>
  <desc>Image generated by PCBNEW </desc>
<g style="fill:#000000; fill-opacity:1.0000;stroke:#000000; stroke-opacity:1.0000;
stroke-linecap:round; stroke-linejoin:round;"
 transform="translate(0 0) scale(1 1)">
</g>
<g style="fill:#000000; fill-opacity:0.0; 
stroke:#000000; stroke-width:0.0000; stroke-opacity:1; 
stroke-linecap:round; stroke-linejoin:round;">
</g>
<g style="fill:#E8B2A7; fill-opacity:0.0; 
stroke:#E8B2A7; stroke-width:0.0000; stroke-opacity:1; 
stroke-linecap:round; stroke-linejoin:round;">
</g>
<g style="fill:#E8B2A7; fill-opacity:0.0; 
stroke:#E8B2A7; stroke-width:0.1500; stroke-opacity:1; 
stroke-linecap:round; stroke-linejoin:round;">
<text x="9.3154" y="10.4942"
textLength="3.9643" font-size="1.3333" lengthAdjust="spacingAndGlyphs"
text-anchor="middle" opacity="0">DP3T</text>
<g class="stroked-text"><desc>DP3T</desc>
<path d="M7.6964 10.4491
L7.6964 9.4491
" />
<path d="M7.6964 9.4491
L7.9344 9.4491
" />
<path d="M7.9344 9.4491
L8.0773 9.4967
" />
<path d="M8.0773 9.4967
L8.1725 9.5919
" />
<path d="M8.1725 9.5919
L8.2202 9.6872
" />
<path d="M8.2202 9.6872
L8.2678 9.8776
" />
<path d="M8.2678 9.8776
L8.2678 10.0205
" />
<path d="M8.2678 10.0205
L8.2202 10.2110
" />
<path d="M8.2202 10.2110
L8.1725 10.3062
" />
<path d="M8.1725 10.3062
L8.0773 10.4014
" />
<path d="M8.0773 10.4014
L7.9344 10.4491
" />
<path d="M7.9344 10.4491
L7.6964 10.4491
" />
<path d="M8.6964 10.4491
L8.6964 9.4491
" />
<path d="M8.6964 9.4491
L9.0773 9.4491
" />
<path d="M9.0773 9.4491
L9.1725 9.4967
" />
<path d="M9.1725 9.4967
L9.2202 9.5443
" />
<path d="M9.2202 9.5443
L9.2678 9.6395
" />
<path d="M9.2678 9.6395
L9.2678 9.7824
" />
<path d="M9.2678 9.7824
L9.2202 9.8776
" />
<path d="M9.2202 9.8776
L9.1725 9.9253
" />
<path d="M9.1725 9.9253
L9.0773 9.9729
" />
<path d="M9.0773 9.9729
L8.6964 9.9729
" />
<path d="M9.6011 9.4491
L10.2202 9.4491
" />
<path d="M10.2202 9.4491
L9.8868 9.8300
" />
<path d="M9.8868 9.8300
L10.0297 9.8300
" />
<path d="M10.0297 9.8300
L10.1249 9.8776
" />
<path d="M10.1249 9.8776
L10.1725 9.9253
" />
<path d="M10.1725 9.9253
L10.2202 10.0205
" />
<path d="M10.2202 10.0205
L10.2202 10.2586
" />
<path d="M10.2202 10.2586
L10.1725 10.3538
" />
<path d="M10.1725 10.3538
L10.1249 10.4014
" />
<path d="M10.1249 10.4014
L10.0297 10.4491
" />
<path d="M10.0297 10.4491
L9.7440 10.4491
" />
<path d="M9.7440 10.4491
L9.6487 10.4014
" />
<path d="M9.6487 10.4014
L9.6011 10.3538
" />
<path d="M10.5059 9.4491
L11.0773 9.4491
" />
<path d="M10.7916 10.4491
L10.7916 9.4491
" />
</g><text x="9.3154" y="12.1042"
textLength="11.0595" font-size="1.3333" lengthAdjust="spacingAndGlyphs"
text-anchor="middle" opacity="0">daughterboard</text>
<g class="stroked-text"><desc>daughterboard</desc>
<path d="M4.5773 12.0591
L4.5773 11.0591
" />
<path d="M4.5773 12.0114
L4.4821 12.0591
" />
<path d="M4.4821 12.0591
L4.2916 12.0591
" />
<path d="M4.2916 12.0591
L4.1964 12.0114
" />
<path d="M4.1964 12.0114
L4.1487 11.9638
" />
<path d="M4.1487 11.9638
L4.1011 11.8686
" />
<path d="M4.1011 11.8686
L4.1011 11.5829
" />
<path d="M4.1011 11.5829
L4.1487 11.4876
" />
<path d="M4.1487 11.4876
L4.1964 11.4400
" />
<path d="M4.1964 11.4400
L4.2916 11.3924
" />
<path d="M4.2916 11.3924
L4.4821 11.3924
" />
<path d="M4.4821 11.3924
L4.5773 11.4400
" />
<path d="M5.4821 12.0591
L5.4821 11.5353
" />
<path d="M5.4821 11.5353
L5.4344 11.4400
" />
<path d="M5.4344 11.4400
L5.3392 11.3924
" />
<path d="M5.3392 11.3924
L5.1487 11.3924
" />
<path d="M5.1487 11.3924
L5.0535 11.4400
" />
<path d="M5.4821 12.0114
L5.3868 12.0591
" />
<path d="M5.3868 12.0591
L5.1487 12.0591
" />
<path d="M5.1487 12.0591
L5.0535 12.0114
" />
<path d="M5.0535 12.0114
L5.0059 11.9162
" />
<path d="M5.0059 11.9162
L5.0059 11.8210
" />
<path d="M5.0059 11.8210
L5.0535 11.7257
" />
<path d="M5.0535 11.7257
L5.1487 11.6781
" />
<path d="M5.1487 11.6781
L5.3868 11.6781
" />
<path d="M5.3868 11.6781
L5.4821 11.6305
" />
<path d="M6.3868 11.3924
L6.3868 12.0591
" />
<path d="M5.9583 11.3924
L5.9583 11.9162
" />
<path d="M5.9583 11.9162
L6.0059 12.0114
" />
<path d="M6.0059 12.0114
L6.1011 12.0591
" />
<path d="M6.1011 12.0591
L6.2440 12.0591
" />
<path d="M6.2440 12.0591
L6.3392 12.0114
" />
<path d="M6.3392 12.0114
L6.3868 11.9638
" />
<path d="M7.2916 11.3924
L7.2916 12.2019
" />
<path d="M7.2916 12.2019
L7.2440 12.2972
" />
<path d="M7.2440 12.2972
L7.1964 12.3448
" />
<path d="M7.1964 12.3448
L7.1011 12.3924
" />
<path d="M7.1011 12.3924
L6.9583 12.3924
" />
<path d="M6.9583 12.3924
L6.8630 12.3448
" />
<path d="M7.2916 12.0114
L7.1964 12.0591
" />
<path d="M7.1964 12.0591
L7.0059 12.0591
" />
<path d="M7.0059 12.0591
L6.9106 12.0114
" />
<path d="M6.9106 12.0114
L6.8630 11.9638
" />
<path d="M6.8630 11.9638
L6.8154 11.8686
" />
<path d="M6.8154 11.8686
L6.8154 11.5829
" />
<path d="M6.8154 11.5829
L6.8630 11.4876
" />
<path d="M6.8630 11.4876
L6.9106 11.4400
" />
<path d="M6.9106 11.4400
L7.0059 11.3924
" />
<path d="M7.0059 11.3924
L7.1964 11.3924
" />
<path d="M7.1964 11.3924
L7.2916 11.4400
" />
<path d="M7.7678 12.0591
L7.7678 11.0591
" />
<path d="M8.1964 12.0591
L8.1964 11.5353
" />
<path d="M8.1964 11.5353
L8.1487 11.4400
" />
<path d="M8.1487 11.4400
L8.0535 11.3924
" />
<path d="M8.0535 11.3924
L7.9106 11.3924
" />
<path d="M7.9106 11.3924
L7.8154 11.4400
" />
<path d="M7.8154 11.4400
L7.7678 11.4876
" />
<path d="M8.5297 11.3924
L8.9106 11.3924
" />
<path d="M8.6725 11.0591
L8.6725 11.9162
" />
<path d="M8.6725 11.9162
L8.7202 12.0114
" />
<path d="M8.7202 12.0114
L8.8154 12.0591
" />
<path d="M8.8154 12.0591
L8.9106 12.0591
" />
<path d="M9.6249 12.0114
L9.5297 12.0591
" />
<path d="M9.5297 12.0591
L9.3392 12.0591
" />
<path d="M9.3392 12.0591
L9.2440 12.0114
" />
<path d="M9.2440 12.0114
L9.1964 11.9162
" />
<path d="M9.1964 11.9162
L9.1964 11.5353
" />
<path d="M9.1964 11.5353
L9.2440 11.4400
" />
<path d="M9.2440 11.4400
L9.3392 11.3924
" />
<path d="M9.3392 11.3924
L9.5297 11.3924
" />
<path d="M9.5297 11.3924
L9.6249 11.4400
" />
<path d="M9.6249 11.4400
L9.6725 11.5353
" />
<path d="M9.6725 11.5353
L9.6725 11.6305
" />
<path d="M9.6725 11.6305
L9.1964 11.7257
" />
<path d="M10.1011 12.0591
L10.1011 11.3924
" />
<path d="M10.1011 11.5829
L10.1487 11.4876
" />
<path d="M10.1487 11.4876
L10.1964 11.4400
" />
<path d="M10.1964 11.4400
L10.2916 11.3924
" />
<path d="M10.2916 11.3924
L10.3868 11.3924
" />
<path d="M10.7202 12.0591
L10.7202 11.0591
" />
<path d="M10.7202 11.4400
L10.8154 11.3924
" />
<path d="M10.8154 11.3924
L11.0059 11.3924
" />
<path d="M11.0059 11.3924
L11.1011 11.4400
" />
<path d="M11.1011 11.4400
L11.1487 11.4876
" />
<path d="M11.1487 11.4876
L11.1964 11.5829
" />
<path d="M11.1964 11.5829
L11.1964 11.8686
" />
<path d="M11.1964 11.8686
L11.1487 11.9638
" />
<path d="M11.1487 11.9638
L11.1011 12.0114
" />
<path d="M11.1011 12.0114
L11.0059 12.0591
" />
<path d="M11.0059 12.0591
L10.8154 12.0591
" />
<path d="M10.8154 12.0591
L10.7202 12.0114
" />
<path d="M11.7678 12.0591
L11.6725 12.0114
" />
<path d="M11.6725 12.0114
L11.6249 11.9638
" />
<path d="M11.6249 11.9638
L11.5773 11.8686
" />
<path d="M11.5773 11.8686
L11.5773 11.5829
" />
<path d="M11.5773 11.5829
L11.6249 11.4876
" />
<path d="M11.6249 11.4876
L11.6725 11.4400
" />
<path d="M11.6725 11.4400
L11.7678 11.3924
" />
<path d="M11.7678 11.3924
L11.9106 11.3924
" />
<path d="M11.9106 11.3924
L12.0059 11.4400
" />
<path d="M12.0059 11.4400
L12.0535 11.4876
" />
<path d="M12.0535 11.4876
L12.1011 11.5829
" />
<path d="M12.1011 11.5829
L12.1011 11.8686
" />
<path d="M12.1011 11.8686
L12.0535 11.9638
" />
<path d="M12.0535 11.9638
L12.0059 12.0114
" />
<path d="M12.0059 12.0114
L11.9106 12.0591
" />
<path d="M11.9106 12.0591
L11.7678 12.0591
" />
<path d="M12.9583 12.0591
L12.9583 11.5353
" />
<path d="M12.9583 11.5353
L12.9106 11.4400
" />
<path d="M12.9106 11.4400
L12.8154 11.3924
" />
<path d="M12.8154 11.3924
L12.6249 11.3924
" />
<path d="M12.6249 11.3924
L12.5297 11.4400
" />
<path d="M12.9583 12.0114
L12.8630 12.0591
" />
<path d="M12.8630 12.0591
L12.6249 12.0591
" />
<path d="M12.6249 12.0591
L12.5297 12.0114
" />
<path d="M12.5297 12.0114
L12.4821 11.9162
" />
<path d="M12.4821 11.9162
L12.4821 11.8210
" />
<path d="M12.4821 11.8210
L12.5297 11.7257
" />
<path d="M12.5297 11.7257
L12.6249 11.6781
" />
<path d="M12.6249 11.6781
L12.8630 11.6781
" />
<path d="M12.8630 11.6781
L12.9583 11.6305
" />
<path d="M13.4344 12.0591
L13.4344 11.3924
" />
<path d="M13.4344 11.5829
L13.4821 11.4876
" />
<path d="M13.4821 11.4876
L13.5297 11.4400
" />
<path d="M13.5297 11.4400
L13.6249 11.3924
" />
<path d="M13.6249 11.3924
L13.7202 11.3924
" />
<path d="M14.4821 12.0591
L14.4821 11.0591
" />
<path d="M14.4821 12.0114
L14.3868 12.0591
" />
<path d="M14.3868 12.0591
L14.1964 12.0591
" />
<path d="M14.1964 12.0591
L14.1011 12.0114
" />
<path d="M14.1011 12.0114
L14.0535 11.9638
" />
<path d="M14.0535 11.9638
L14.0059 11.8686
" />
<path d="M14.0059 11.8686
L14.0059 11.5829
" />
<path d="M14.0059 11.5829
L14.0535 11.4876
" />
<path d="M14.0535 11.4876
L14.1011 11.4400
" />
<path d="M14.1011 11.4400
L14.1964 11.3924
" />
<path d="M14.1964 11.3924
L14.3868 11.3924
" />
<path d="M14.3868 11.3924
L14.4821 11.4400
" />
</g><g >
</g>
<g >
</g>
<g >
</g>
<g >
</g>
<g >
</g>
<g >
</g>
<g >
</g>
<g >
</g>
<g >
</g>
</g>
<g style="fill:#FFFFFF; fill-opacity:0.0; 
stroke:#FFFFFF; stroke-width:0.1500; stroke-opacity:1; 
stroke-linecap:round; stroke-linejoin:round;">
</g>
<g style="fill:#FFFFFF; fill-opacity:1.0000; 
stroke:#FFFFFF; stroke-width:0.0000; stroke-opacity:1; 
stroke-linecap:round; stroke-linejoin:round;">
<circle cx="14.5254" cy="20.8483" r="0.5500" /> 
</g>
<g style="fill:#FFFFFF; fill-opacity:1.0000; 
stroke:#FFFFFF; stroke-width:0.0212; stroke-opacity:1; 
stroke-linecap:round; stroke-linejoin:round;">
</g>
<g style="fill:#FFFFFF; fill-opacity:1.0000; 
stroke:#FFFFFF; stroke-width:0.0000; stroke-opacity:1; 
stroke-linecap:round; stroke-linejoin:round;">
<circle cx="14.5254" cy="8.8483" r="0.5500" /> 
</g>
<g style="fill:#FFFFFF; fill-opacity:1.0000; 
stroke:#FFFFFF; stroke-width:0.0212; stroke-opacity:1; 
stroke-linecap:round; stroke-linejoin:round;">
</g>
<g style="fill:#FFFFFF; fill-opacity:1.0000; 
stroke:#FFFFFF; stroke-width:0.0000; stroke-opacity:1; 
stroke-linecap:round; stroke-linejoin:round;">
<circle cx="17.5872" cy="17.6686" r="0.7000" /> 
</g>
<g style="fill:#FFFFFF; fill-opacity:1.0000; 
stroke:#FFFFFF; stroke-width:0.0212; stroke-opacity:1; 
stroke-linecap:round; stroke-linejoin:round;">
</g>
<g style="fill:#FFFFFF; fill-opacity:1.0000; 
stroke:#FFFFFF; stroke-width:0.0000; stroke-opacity:1; 
stroke-linecap:round; stroke-linejoin:round;">
<circle cx="1.3872" cy="12.0686" r="0.7000" /> 
</g>
<g style="fill:#FFFFFF; fill-opacity:1.0000; 
stroke:#FFFFFF; stroke-width:0.0212; stroke-opacity:1; 
stroke-linecap:round; stroke-linejoin:round;">
</g>
<g style="fill:#FFFFFF; fill-opacity:1.0000; 
stroke:#FFFFFF; stroke-width:0.0000; stroke-opacity:1; 
stroke-linecap:round; stroke-linejoin:round;">
<circle cx="13.4872" cy="16.1186" r="0.4500" /> 
</g>
<g style="fill:#FFFFFF; fill-opacity:1.0000; 
stroke:#FFFFFF; stroke-width:0.0212; stroke-opacity:1; 
stroke-linecap:round; stroke-linejoin:round;">
</g>
<g style="fill:#FFFFFF; fill-opacity:1.0000; 
stroke:#FFFFFF; stroke-width:0.0000; stroke-opacity:1; 
stroke-linecap:round; stroke-linejoin:round;">
<circle cx="8.4872" cy="16.1186" r="0.4500" /> 
</g>
<g style="fill:#FFFFFF; fill-opacity:1.0000; 
stroke:#FFFFFF; stroke-width:0.0212; stroke-opacity:1; 
stroke-linecap:round; stroke-linejoin:round;">
</g>
<g style="fill:#FFFFFF; fill-opacity:1.0000; 
stroke:#FFFFFF; stroke-width:0.0000; stroke-opacity:1; 
stroke-linecap:round; stroke-linejoin:round;">
<circle cx="5.9872" cy="16.1186" r="0.4500" /> 
</g>
<g style="fill:#FFFFFF; fill-opacity:1.0000; 
stroke:#FFFFFF; stroke-width:0.0212; stroke-opacity:1; 
stroke-linecap:round; stroke-linejoin:round;">
</g>
<g style="fill:#FFFFFF; fill-opacity:1.0000; 
stroke:#FFFFFF; stroke-width:0.0000; stroke-opacity:1; 
stroke-linecap:round; stroke-linejoin:round;">
<circle cx="3.4872" cy="16.1186" r="0.4500" /> 
</g>
<g style="fill:#FFFFFF; fill-opacity:1.0000; 
stroke:#FFFFFF; stroke-width:0.0212; stroke-opacity:1; 
stroke-linecap:round; stroke-linejoin:round;">
</g>
<g style="fill:#FFFFFF; fill-opacity:1.0000; 
stroke:#FFFFFF; stroke-width:0.0000; stroke-opacity:1; 
stroke-linecap:round; stroke-linejoin:round;">
<circle cx="13.4872" cy="13.6186" r="0.4500" /> 
</g>
<g style="fill:#FFFFFF; fill-opacity:1.0000; 
stroke:#FFFFFF; stroke-width:0.0212; stroke-opacity:1; 
stroke-linecap:round; stroke-linejoin:round;">
</g>
<g style="fill:#FFFFFF; fill-opacity:1.0000; 
stroke:#FFFFFF; stroke-width:0.0000; stroke-opacity:1; 
stroke-linecap:round; stroke-linejoin:round;">
<circle cx="8.4872" cy="13.6186" r="0.4500" /> 
</g>
<g style="fill:#FFFFFF; fill-opacity:1.0000; 
stroke:#FFFFFF; stroke-width:0.0212; stroke-opacity:1; 
stroke-linecap:round; stroke-linejoin:round;">
</g>
<g style="fill:#FFFFFF; fill-opacity:1.0000; 
stroke:#FFFFFF; stroke-width:0.0000; stroke-opacity:1; 
stroke-linecap:round; stroke-linejoin:round;">
<circle cx="5.9872" cy="13.6186" r="0.4500" /> 
</g>
<g style="fill:#FFFFFF; fill-opacity:1.0000; 
stroke:#FFFFFF; stroke-width:0.0212; stroke-opacity:1; 
stroke-linecap:round; stroke-linejoin:round;">
</g>
<g style="fill:#FFFFFF; fill-opacity:1.0000; 
stroke:#FFFFFF; stroke-width:0.0000; stroke-opacity:1; 
stroke-linecap:round; stroke-linejoin:round;">
<circle cx="3.4872" cy="13.6186" r="0.4500" /> 
</g>
<g style="fill:#FFFFFF; fill-opacity:1.0000; 
stroke:#FFFFFF; stroke-width:0.0212; stroke-opacity:1; 
stroke-linecap:round; stroke-linejoin:round;">
</g>
<g style="fill:#FFFFFF; fill-opacity:1.0000; 
stroke:#FFFFFF; stroke-width:0.0000; stroke-opacity:1; 
stroke-linecap:round; stroke-linejoin:round;">
<circle cx="4.5254" cy="20.8483" r="0.5500" /> 
</g>
<g style="fill:#FFFFFF; fill-opacity:1.0000; 
stroke:#FFFFFF; stroke-width:0.0212; stroke-opacity:1; 
stroke-linecap:round; stroke-linejoin:round;">
</g>
<g style="fill:#FFFFFF; fill-opacity:1.0000; 
stroke:#FFFFFF; stroke-width:0.0000; stroke-opacity:1; 
stroke-linecap:round; stroke-linejoin:round;">
<circle cx="4.5254" cy="8.8483" r="0.5500" /> 
</g>
<g style="fill:#FFFFFF; fill-opacity:1.0000; 
stroke:#FFFFFF; stroke-width:0.0212; stroke-opacity:1; 
stroke-linecap:round; stroke-linejoin:round;">
</g>
<g style="fill:#000000; fill-opacity:1.0000; 
stroke:#000000; stroke-width:0.0212; stroke-opacity:1; 
stroke-linecap:round; stroke-linejoin:round;">
<g >
</g>
<g style="fill:#4D7FC4; fill-opacity:1.0000; 
stroke:#4D7FC4; stroke-width:0.0212; stroke-opacity:1; 
stroke-linecap:round; stroke-linejoin:round;">
</g>
<g style="fill:#4D7FC4; fill-opacity:1.0000; 
stroke:#4D7FC4; stroke-width:0.0000; stroke-opacity:1; 
stroke-linecap:round; stroke-linejoin:round;">
<circle cx="14.5254" cy="20.8483" r="1.0500" /> 
</g>
<g style="fill:#4D7FC4; fill-opacity:1.0000; 
stroke:#4D7FC4; stroke-width:0.0212; stroke-opacity:1; 
stroke-linecap:round; stroke-linejoin:round;">
</g>
<g >
</g>
<g >
</g>
<g style="fill:#4D7FC4; fill-opacity:1.0000; 
stroke:#4D7FC4; stroke-width:0.0212; stroke-opacity:1; 
stroke-linecap:round; stroke-linejoin:round;">
</g>
<g style="fill:#4D7FC4; fill-opacity:1.0000; 
stroke:#4D7FC4; stroke-width:0.0000; stroke-opacity:1; 
stroke-linecap:round; stroke-linejoin:round;">
<circle cx="14.5254" cy="8.8483" r="1.0500" /> 
</g>
<g style="fill:#4D7FC4; fill-opacity:1.0000; 
stroke:#4D7FC4; stroke-width:0.0212; stroke-opacity:1; 
stroke-linecap:round; stroke-linejoin:round;">
</g>
<g >
</g>
<g style="fill:#4D7FC4; fill-opacity:1.0000; 
stroke:#4D7FC4; stroke-width:0.0212; stroke-opacity:1; 
stroke-linecap:round; stroke-linejoin:round;">
</g>
<g style="fill:#4D7FC4; fill-opacity:1.0000; 
stroke:#4D7FC4; stroke-width:0.0000; stroke-opacity:1; 
stroke-linecap:round; stroke-linejoin:round;">
<circle cx="17.5872" cy="17.6686" r="0.8000" /> 
</g>
<g style="fill:#4D7FC4; fill-opacity:1.0000; 
stroke:#4D7FC4; stroke-width:0.0212; stroke-opacity:1; 
stroke-linecap:round; stroke-linejoin:round;">
</g>
<g style="fill:#4D7FC4; fill-opacity:1.0000; 
stroke:#4D7FC4; stroke-width:0.0000; stroke-opacity:1; 
stroke-linecap:round; stroke-linejoin:round;">
<circle cx="1.3872" cy="12.0686" r="0.8000" /> 
</g>
<g style="fill:#4D7FC4; fill-opacity:1.0000; 
stroke:#4D7FC4; stroke-width:0.0212; stroke-opacity:1; 
stroke-linecap:round; stroke-linejoin:round;">
</g>
<g style="fill:#4D7FC4; fill-opacity:1.0000; 
stroke:#4D7FC4; stroke-width:0.0000; stroke-opacity:1; 
stroke-linecap:round; stroke-linejoin:round;">
<path style="fill:#4D7FC4; fill-opacity:1.0000; 
stroke:#4D7FC4; stroke-width:0.0000; stroke-opacity:1; 
stroke-linecap:round; stroke-linejoin:round;fill-rule:evenodd;"
d="M 12.6872,15.3186
12.6872,16.9186
14.2872,16.9186
14.2872,15.3186
Z" /> 
<circle cx="8.4872" cy="16.1186" r="0.8000" /> 
</g>
<g style="fill:#4D7FC4; fill-opacity:1.0000; 
stroke:#4D7FC4; stroke-width:0.0212; stroke-opacity:1; 
stroke-linecap:round; stroke-linejoin:round;">
</g>
<g style="fill:#4D7FC4; fill-opacity:1.0000; 
stroke:#4D7FC4; stroke-width:0.0000; stroke-opacity:1; 
stroke-linecap:round; stroke-linejoin:round;">
<circle cx="5.9872" cy="16.1186" r="0.8000" /> 
</g>
<g style="fill:#4D7FC4; fill-opacity:1.0000; 
stroke:#4D7FC4; stroke-width:0.0212; stroke-opacity:1; 
stroke-linecap:round; stroke-linejoin:round;">
</g>
<g style="fill:#4D7FC4; fill-opacity:1.0000; 
stroke:#4D7FC4; stroke-width:0.0000; stroke-opacity:1; 
stroke-linecap:round; stroke-linejoin:round;">
<circle cx="3.4872" cy="16.1186" r="0.8000" /> 
</g>
<g style="fill:#4D7FC4; fill-opacity:1.0000; 
stroke:#4D7FC4; stroke-width:0.0212; stroke-opacity:1; 
stroke-linecap:round; stroke-linejoin:round;">
</g>
<g style="fill:#4D7FC4; fill-opacity:1.0000; 
stroke:#4D7FC4; stroke-width:0.0000; stroke-opacity:1; 
stroke-linecap:round; stroke-linejoin:round;">
<circle cx="13.4872" cy="13.6186" r="0.8000" /> 
</g>
<g style="fill:#4D7FC4; fill-opacity:1.0000; 
stroke:#4D7FC4; stroke-width:0.0212; stroke-opacity:1; 
stroke-linecap:round; stroke-linejoin:round;">
</g>
<g style="fill:#4D7FC4; fill-opacity:1.0000; 
stroke:#4D7FC4; stroke-width:0.0000; stroke-opacity:1; 
stroke-linecap:round; stroke-linejoin:round;">
<circle cx="8.4872" cy="13.6186" r="0.8000" /> 
</g>
<g style="fill:#4D7FC4; fill-opacity:1.0000; 
stroke:#4D7FC4; stroke-width:0.0212; stroke-opacity:1; 
stroke-linecap:round; stroke-linejoin:round;">
</g>
<g style="fill:#4D7FC4; fill-opacity:1.0000; 
stroke:#4D7FC4; stroke-width:0.0000; stroke-opacity:1; 
stroke-linecap:round; stroke-linejoin:round;">
<circle cx="5.9872" cy="13.6186" r="0.8000" /> 
</g>
<g style="fill:#4D7FC4; fill-opacity:1.0000; 
stroke:#4D7FC4; stroke-width:0.0212; stroke-opacity:1; 
stroke-linecap:round; stroke-linejoin:round;">
</g>
<g style="fill:#4D7FC4; fill-opacity:1.0000; 
stroke:#4D7FC4; stroke-width:0.0000; stroke-opacity:1; 
stroke-linecap:round; stroke-linejoin:round;">
<circle cx="3.4872" cy="13.6186" r="0.8000" /> 
</g>
<g style="fill:#4D7FC4; fill-opacity:1.0000; 
stroke:#4D7FC4; stroke-width:0.0212; stroke-opacity:1; 
stroke-linecap:round; stroke-linejoin:round;">
</g>
<g >
</g>
<g style="fill:#4D7FC4; fill-opacity:1.0000; 
stroke:#4D7FC4; stroke-width:0.0212; stroke-opacity:1; 
stroke-linecap:round; stroke-linejoin:round;">
</g>
<g style="fill:#4D7FC4; fill-opacity:1.0000; 
stroke:#4D7FC4; stroke-width:0.0000; stroke-opacity:1; 
stroke-linecap:round; stroke-linejoin:round;">
<circle cx="4.5254" cy="20.8483" r="1.0500" /> 
</g>
<g style="fill:#4D7FC4; fill-opacity:1.0000; 
stroke:#4D7FC4; stroke-width:0.0212; stroke-opacity:1; 
stroke-linecap:round; stroke-linejoin:round;">
</g>
<g >
</g>
<g style="fill:#4D7FC4; fill-opacity:1.0000; 
stroke:#4D7FC4; stroke-width:0.0212; stroke-opacity:1; 
stroke-linecap:round; stroke-linejoin:round;">
</g>
<g style="fill:#4D7FC4; fill-opacity:1.0000; 
stroke:#4D7FC4; stroke-width:0.0000; stroke-opacity:1; 
stroke-linecap:round; stroke-linejoin:round;">
<path style="fill:#4D7FC4; fill-opacity:1.0000; 
stroke:#4D7FC4; stroke-width:0.0000; stroke-opacity:1; 
stroke-linecap:round; stroke-linejoin:round;fill-rule:evenodd;"
d="M 5.5754,8.0483
5.5564,7.9526
5.5022,7.8715
5.4211,7.8173
5.3254,7.7983
3.7254,7.7982
3.6297,7.8173
3.5486,7.8715
3.4944,7.9526
3.4754,8.0483
3.4754,9.6482
3.4944,9.7439
3.5486,9.8250
3.6297,9.8792
3.7254,9.8982
5.3254,9.8982
5.4211,9.8792
5.5022,9.8250
5.5564,9.7439
5.5754,9.6482
Z" /> 
</g>
<g >
</g>
<g >
</g>
<g >
</g>
</g>
<g style="fill:#FFFFFF; fill-opacity:1.0000; 
stroke:#FFFFFF; stroke-width:0.0000; stroke-opacity:1; 
stroke-linecap:round; stroke-linejoin:round;">
<circle cx="14.5254" cy="20.8483" r="0.5500" /> 
</g>
<g style="fill:#FFFFFF; fill-opacity:1.0000; 
stroke:#FFFFFF; stroke-width:0.0212; stroke-opacity:1; 
stroke-linecap:round; stroke-linejoin:round;">
</g>
<g style="fill:#FFFFFF; fill-opacity:1.0000; 
stroke:#FFFFFF; stroke-width:0.0000; stroke-opacity:1; 
stroke-linecap:round; stroke-linejoin:round;">
<circle cx="14.5254" cy="8.8483" r="0.5500" /> 
</g>
<g style="fill:#FFFFFF; fill-opacity:1.0000; 
stroke:#FFFFFF; stroke-width:0.0212; stroke-opacity:1; 
stroke-linecap:round; stroke-linejoin:round;">
</g>
<g style="fill:#FFFFFF; fill-opacity:1.0000; 
stroke:#FFFFFF; stroke-width:0.0000; stroke-opacity:1; 
stroke-linecap:round; stroke-linejoin:round;">
<circle cx="17.5872" cy="17.6686" r="0.7000" /> 
</g>
<g style="fill:#FFFFFF; fill-opacity:1.0000; 
stroke:#FFFFFF; stroke-width:0.0212; stroke-opacity:1; 
stroke-linecap:round; stroke-linejoin:round;">
</g>
<g style="fill:#FFFFFF; fill-opacity:1.0000; 
stroke:#FFFFFF; stroke-width:0.0000; stroke-opacity:1; 
stroke-linecap:round; stroke-linejoin:round;">
<circle cx="1.3872" cy="12.0686" r="0.7000" /> 
</g>
<g style="fill:#FFFFFF; fill-opacity:1.0000; 
stroke:#FFFFFF; stroke-width:0.0212; stroke-opacity:1; 
stroke-linecap:round; stroke-linejoin:round;">
</g>
<g style="fill:#FFFFFF; fill-opacity:1.0000; 
stroke:#FFFFFF; stroke-width:0.0000; stroke-opacity:1; 
stroke-linecap:round; stroke-linejoin:round;">
<circle cx="13.4872" cy="16.1186" r="0.4500" /> 
</g>
<g style="fill:#FFFFFF; fill-opacity:1.0000; 
stroke:#FFFFFF; stroke-width:0.0212; stroke-opacity:1; 
stroke-linecap:round; stroke-linejoin:round;">
</g>
<g style="fill:#FFFFFF; fill-opacity:1.0000; 
stroke:#FFFFFF; stroke-width:0.0000; stroke-opacity:1; 
stroke-linecap:round; stroke-linejoin:round;">
<circle cx="8.4872" cy="16.1186" r="0.4500" /> 
</g>
<g style="fill:#FFFFFF; fill-opacity:1.0000; 
stroke:#FFFFFF; stroke-width:0.0212; stroke-opacity:1; 
stroke-linecap:round; stroke-linejoin:round;">
</g>
<g style="fill:#FFFFFF; fill-opacity:1.0000; 
stroke:#FFFFFF; stroke-width:0.0000; stroke-opacity:1; 
stroke-linecap:round; stroke-linejoin:round;">
<circle cx="5.9872" cy="16.1186" r="0.4500" /> 
</g>
<g style="fill:#FFFFFF; fill-opacity:1.0000; 
stroke:#FFFFFF; stroke-width:0.0212; stroke-opacity:1; 
stroke-linecap:round; stroke-linejoin:round;">
</g>
<g style="fill:#FFFFFF; fill-opacity:1.0000; 
stroke:#FFFFFF; stroke-width:0.0000; stroke-opacity:1; 
stroke-linecap:round; stroke-linejoin:round;">
<circle cx="3.4872" cy="16.1186" r="0.4500" /> 
</g>
<g style="fill:#FFFFFF; fill-opacity:1.0000; 
stroke:#FFFFFF; stroke-width:0.0212; stroke-opacity:1; 
stroke-linecap:round; stroke-linejoin:round;">
</g>
<g style="fill:#FFFFFF; fill-opacity:1.0000; 
stroke:#FFFFFF; stroke-width:0.0000; stroke-opacity:1; 
stroke-linecap:round; stroke-linejoin:round;">
<circle cx="13.4872" cy="13.6186" r="0.4500" /> 
</g>
<g style="fill:#FFFFFF; fill-opacity:1.0000; 
stroke:#FFFFFF; stroke-width:0.0212; stroke-opacity:1; 
stroke-linecap:round; stroke-linejoin:round;">
</g>
<g style="fill:#FFFFFF; fill-opacity:1.0000; 
stroke:#FFFFFF; stroke-width:0.0000; stroke-opacity:1; 
stroke-linecap:round; stroke-linejoin:round;">
<circle cx="8.4872" cy="13.6186" r="0.4500" /> 
</g>
<g style="fill:#FFFFFF; fill-opacity:1.0000; 
stroke:#FFFFFF; stroke-width:0.0212; stroke-opacity:1; 
stroke-linecap:round; stroke-linejoin:round;">
</g>
<g style="fill:#FFFFFF; fill-opacity:1.0000; 
stroke:#FFFFFF; stroke-width:0.0000; stroke-opacity:1; 
stroke-linecap:round; stroke-linejoin:round;">
<circle cx="5.9872" cy="13.6186" r="0.4500" /> 
</g>
<g style="fill:#FFFFFF; fill-opacity:1.0000; 
stroke:#FFFFFF; stroke-width:0.0212; stroke-opacity:1; 
stroke-linecap:round; stroke-linejoin:round;">
</g>
<g style="fill:#FFFFFF; fill-opacity:1.0000; 
stroke:#FFFFFF; stroke-width:0.0000; stroke-opacity:1; 
stroke-linecap:round; stroke-linejoin:round;">
<circle cx="3.4872" cy="13.6186" r="0.4500" /> 
</g>
<g style="fill:#FFFFFF; fill-opacity:1.0000; 
stroke:#FFFFFF; stroke-width:0.0212; stroke-opacity:1; 
stroke-linecap:round; stroke-linejoin:round;">
</g>
<g style="fill:#FFFFFF; fill-opacity:1.0000; 
stroke:#FFFFFF; stroke-width:0.0000; stroke-opacity:1; 
stroke-linecap:round; stroke-linejoin:round;">
<circle cx="4.5254" cy="20.8483" r="0.5500" /> 
</g>
<g style="fill:#FFFFFF; fill-opacity:1.0000; 
stroke:#FFFFFF; stroke-width:0.0212; stroke-opacity:1; 
stroke-linecap:round; stroke-linejoin:round;">
</g>
<g style="fill:#FFFFFF; fill-opacity:1.0000; 
stroke:#FFFFFF; stroke-width:0.0000; stroke-opacity:1; 
stroke-linecap:round; stroke-linejoin:round;">
<circle cx="4.5254" cy="8.8483" r="0.5500" /> 
</g>
<g style="fill:#FFFFFF; fill-opacity:1.0000; 
stroke:#FFFFFF; stroke-width:0.0212; stroke-opacity:1; 
stroke-linecap:round; stroke-linejoin:round;">
</g>
<g style="fill:#000000; fill-opacity:1.0000; 
stroke:#000000; stroke-width:0.0212; stroke-opacity:1; 
stroke-linecap:round; stroke-linejoin:round;">
</g>
<g style="fill:#D0D2CD; fill-opacity:1.0000; 
stroke:#D0D2CD; stroke-width:0.0212; stroke-opacity:1; 
stroke-linecap:round; stroke-linejoin:round;">
</g>
<g style="fill:#D0D2CD; fill-opacity:1.0000; 
stroke:#D0D2CD; stroke-width:0.1000; stroke-opacity:1; 
stroke-linecap:round; stroke-linejoin:round;">
</g>
<g style="fill:#D0D2CD; fill-opacity:0.0; 
stroke:#D0D2CD; stroke-width:0.1000; stroke-opacity:1; 
stroke-linecap:round; stroke-linejoin:round;">
<path d="M0.0254 22.8483
L19.0254 22.8483
" />
<path d="M0.0254 5.8483
L0.0254 22.8483
" />
</g>
<g style="fill:#D0D2CD; fill-opacity:1.0000; 
stroke:#D0D2CD; stroke-width:0.0000; stroke-opacity:1; 
stroke-linecap:round; stroke-linejoin:round;">
<circle cx="19.0254" cy="22.8483" r="0.0500" /> 
</g>
<g style="fill:#D0D2CD; fill-opacity:1.0000; 
stroke:#D0D2CD; stroke-width:0.1000; stroke-opacity:1; 
stroke-linecap:round; stroke-linejoin:round;">
</g>
<g style="fill:#D0D2CD; fill-opacity:0.0; 
stroke:#D0D2CD; stroke-width:0.1000; stroke-opacity:1; 
stroke-linecap:round; stroke-linejoin:round;">
<path d="M19.0254 5.8483
L0.0254 5.8483
" />
<path d="M19.0254 22.8483
L19.0254 5.8483
" />
<g >
</g>
<g >
</g>
<g >
</g>
<g >
</g>
<g >
</g>
<g >
</g>
<g >
</g>
<g >
</g>
<g >
</g>
</g> 
</svg>
