<?xml version="1.0" standalone="no"?>
 <!DOCTYPE svg PUBLIC "-//W3C//DTD SVG 1.1//EN" 
 "http://www.w3.org/Graphics/SVG/1.1/DTD/svg11.dtd"> 
<svg
  xmlns:svg="http://www.w3.org/2000/svg"
  xmlns="http://www.w3.org/2000/svg"
  xmlns:xlink="http://www.w3.org/1999/xlink"
  version="1.1"
  width="19.0754mm" height="22.8854mm" viewBox="0.0000 0.0000 19.0754 22.8854">
<title>SVG Image created as herovco_switchPCB_front.svg date 2024/03/24 10:52:54 </title>
  <desc>Image generated by PCBNEW </desc>
<g style="fill:#000000; fill-opacity:1.0000;stroke:#000000; stroke-opacity:1.0000;
stroke-linecap:round; stroke-linejoin:round;"
 transform="translate(0 0) scale(1 1)">
</g>
<g style="fill:#000000; fill-opacity:0.0; 
stroke:#000000; stroke-width:0.0000; stroke-opacity:1; 
stroke-linecap:round; stroke-linejoin:round;">
<g >
</g>
<g style="fill:#C83434; fill-opacity:0.0; 
stroke:#C83434; stroke-width:0.0000; stroke-opacity:1; 
stroke-linecap:round; stroke-linejoin:round;">
</g>
<g style="fill:#C83434; fill-opacity:1.0000; 
stroke:#C83434; stroke-width:0.0000; stroke-opacity:1; 
stroke-linecap:round; stroke-linejoin:round;">
<circle cx="4.5500" cy="20.8483" r="1.0500" /> 
</g>
<g style="fill:#C83434; fill-opacity:1.0000; 
stroke:#C83434; stroke-width:0.0212; stroke-opacity:1; 
stroke-linecap:round; stroke-linejoin:round;">
</g>
<g >
</g>
<g >
</g>
<g style="fill:#C83434; fill-opacity:1.0000; 
stroke:#C83434; stroke-width:0.0212; stroke-opacity:1; 
stroke-linecap:round; stroke-linejoin:round;">
</g>
<g style="fill:#C83434; fill-opacity:1.0000; 
stroke:#C83434; stroke-width:0.0000; stroke-opacity:1; 
stroke-linecap:round; stroke-linejoin:round;">
<circle cx="4.5500" cy="8.8483" r="1.0500" /> 
</g>
<g style="fill:#C83434; fill-opacity:1.0000; 
stroke:#C83434; stroke-width:0.0212; stroke-opacity:1; 
stroke-linecap:round; stroke-linejoin:round;">
</g>
<g >
</g>
<g style="fill:#C83434; fill-opacity:1.0000; 
stroke:#C83434; stroke-width:0.0212; stroke-opacity:1; 
stroke-linecap:round; stroke-linejoin:round;">
</g>
<g style="fill:#C83434; fill-opacity:1.0000; 
stroke:#C83434; stroke-width:0.0000; stroke-opacity:1; 
stroke-linecap:round; stroke-linejoin:round;">
<circle cx="1.4882" cy="17.6686" r="0.8000" /> 
</g>
<g style="fill:#C83434; fill-opacity:1.0000; 
stroke:#C83434; stroke-width:0.0212; stroke-opacity:1; 
stroke-linecap:round; stroke-linejoin:round;">
</g>
<g style="fill:#C83434; fill-opacity:1.0000; 
stroke:#C83434; stroke-width:0.0000; stroke-opacity:1; 
stroke-linecap:round; stroke-linejoin:round;">
<circle cx="17.6882" cy="12.0686" r="0.8000" /> 
</g>
<g style="fill:#C83434; fill-opacity:1.0000; 
stroke:#C83434; stroke-width:0.0212; stroke-opacity:1; 
stroke-linecap:round; stroke-linejoin:round;">
</g>
<g style="fill:#C83434; fill-opacity:1.0000; 
stroke:#C83434; stroke-width:0.0000; stroke-opacity:1; 
stroke-linecap:round; stroke-linejoin:round;">
<path style="fill:#C83434; fill-opacity:1.0000; 
stroke:#C83434; stroke-width:0.0000; stroke-opacity:1; 
stroke-linecap:round; stroke-linejoin:round;fill-rule:evenodd;"
d="M 6.3882,15.3186
6.3882,16.9186
4.7882,16.9186
4.7882,15.3186
Z" /> 
<circle cx="10.5882" cy="16.1186" r="0.8000" /> 
</g>
<g style="fill:#C83434; fill-opacity:1.0000; 
stroke:#C83434; stroke-width:0.0212; stroke-opacity:1; 
stroke-linecap:round; stroke-linejoin:round;">
</g>
<g style="fill:#C83434; fill-opacity:1.0000; 
stroke:#C83434; stroke-width:0.0000; stroke-opacity:1; 
stroke-linecap:round; stroke-linejoin:round;">
<circle cx="13.0882" cy="16.1186" r="0.8000" /> 
</g>
<g style="fill:#C83434; fill-opacity:1.0000; 
stroke:#C83434; stroke-width:0.0212; stroke-opacity:1; 
stroke-linecap:round; stroke-linejoin:round;">
</g>
<g style="fill:#C83434; fill-opacity:1.0000; 
stroke:#C83434; stroke-width:0.0000; stroke-opacity:1; 
stroke-linecap:round; stroke-linejoin:round;">
<circle cx="15.5882" cy="16.1186" r="0.8000" /> 
</g>
<g style="fill:#C83434; fill-opacity:1.0000; 
stroke:#C83434; stroke-width:0.0212; stroke-opacity:1; 
stroke-linecap:round; stroke-linejoin:round;">
</g>
<g style="fill:#C83434; fill-opacity:1.0000; 
stroke:#C83434; stroke-width:0.0000; stroke-opacity:1; 
stroke-linecap:round; stroke-linejoin:round;">
<circle cx="5.5882" cy="13.6186" r="0.8000" /> 
</g>
<g style="fill:#C83434; fill-opacity:1.0000; 
stroke:#C83434; stroke-width:0.0212; stroke-opacity:1; 
stroke-linecap:round; stroke-linejoin:round;">
</g>
<g style="fill:#C83434; fill-opacity:1.0000; 
stroke:#C83434; stroke-width:0.0000; stroke-opacity:1; 
stroke-linecap:round; stroke-linejoin:round;">
<circle cx="10.5882" cy="13.6186" r="0.8000" /> 
</g>
<g style="fill:#C83434; fill-opacity:1.0000; 
stroke:#C83434; stroke-width:0.0212; stroke-opacity:1; 
stroke-linecap:round; stroke-linejoin:round;">
</g>
<g style="fill:#C83434; fill-opacity:1.0000; 
stroke:#C83434; stroke-width:0.0000; stroke-opacity:1; 
stroke-linecap:round; stroke-linejoin:round;">
<circle cx="13.0882" cy="13.6186" r="0.8000" /> 
</g>
<g style="fill:#C83434; fill-opacity:1.0000; 
stroke:#C83434; stroke-width:0.0212; stroke-opacity:1; 
stroke-linecap:round; stroke-linejoin:round;">
</g>
<g style="fill:#C83434; fill-opacity:1.0000; 
stroke:#C83434; stroke-width:0.0000; stroke-opacity:1; 
stroke-linecap:round; stroke-linejoin:round;">
<circle cx="15.5882" cy="13.6186" r="0.8000" /> 
</g>
<g style="fill:#C83434; fill-opacity:1.0000; 
stroke:#C83434; stroke-width:0.0212; stroke-opacity:1; 
stroke-linecap:round; stroke-linejoin:round;">
</g>
<g >
</g>
<g style="fill:#C83434; fill-opacity:1.0000; 
stroke:#C83434; stroke-width:0.0212; stroke-opacity:1; 
stroke-linecap:round; stroke-linejoin:round;">
</g>
<g style="fill:#C83434; fill-opacity:1.0000; 
stroke:#C83434; stroke-width:0.0000; stroke-opacity:1; 
stroke-linecap:round; stroke-linejoin:round;">
<circle cx="14.5500" cy="20.8483" r="1.0500" /> 
</g>
<g style="fill:#C83434; fill-opacity:1.0000; 
stroke:#C83434; stroke-width:0.0212; stroke-opacity:1; 
stroke-linecap:round; stroke-linejoin:round;">
</g>
<g >
</g>
<g style="fill:#C83434; fill-opacity:1.0000; 
stroke:#C83434; stroke-width:0.0212; stroke-opacity:1; 
stroke-linecap:round; stroke-linejoin:round;">
</g>
<g style="fill:#C83434; fill-opacity:1.0000; 
stroke:#C83434; stroke-width:0.0000; stroke-opacity:1; 
stroke-linecap:round; stroke-linejoin:round;">
<path style="fill:#C83434; fill-opacity:1.0000; 
stroke:#C83434; stroke-width:0.0000; stroke-opacity:1; 
stroke-linecap:round; stroke-linejoin:round;fill-rule:evenodd;"
d="M 13.5000,8.0483
13.5190,7.9526
13.5732,7.8715
13.6543,7.8173
13.7500,7.7983
15.3500,7.7982
15.4457,7.8173
15.5268,7.8715
15.5810,7.9526
15.6000,8.0483
15.6000,9.6482
15.5810,9.7439
15.5268,9.8250
15.4457,9.8792
15.3500,9.8982
13.7500,9.8982
13.6543,9.8792
13.5732,9.8250
13.5190,9.7439
13.5000,9.6482
Z" /> 
</g>
<g >
</g>
<g >
</g>
<g style="fill:#C83434; fill-opacity:1.0000; 
stroke:#C83434; stroke-width:0.0000; stroke-opacity:1; 
stroke-linecap:round; stroke-linejoin:round;">
</g>
<g style="fill:#C83434; fill-opacity:1.0000; 
stroke:#C83434; stroke-width:0.2500; stroke-opacity:1; 
stroke-linecap:round; stroke-linejoin:round;">
</g>
<g style="fill:#C83434; fill-opacity:0.0; 
stroke:#C83434; stroke-width:0.2500; stroke-opacity:1; 
stroke-linecap:round; stroke-linejoin:round;">
<path d="M5.5882 9.8864
L5.5882 13.6186
" />
<path d="M4.5500 8.8483
L5.5882 9.8864
" />
<path d="M14.4020 14.8049
L15.5882 13.6186
" />
<path d="M10.5882 16.1186
L11.9020 14.8049
" />
<path d="M14.4020 14.8049
L14.4020 20.7003
" />
<path d="M11.9020 14.8049
L14.4020 14.8049
" />
<path d="M14.4020 20.7003
L14.5500 20.8483
" />
<path d="M11.8356 17.3712
L13.0882 16.1186
" />
<path d="M4.5500 20.8483
L5.5882 19.8101
" />
<path d="M6.8408 17.3712
L11.8356 17.3712
" />
<path d="M5.5882 19.8101
L5.5882 16.1186
" />
<path d="M5.5882 16.1186
L6.8408 17.3712
" />
<path d="M14.5500 8.8483
L14.5500 9.6569
" />
<path d="M14.5500 9.6569
L10.5882 13.6186
" />
</g>
<g >
</g>
</g>
<g style="fill:#FFFFFF; fill-opacity:0.0; 
stroke:#FFFFFF; stroke-width:0.2500; stroke-opacity:1; 
stroke-linecap:round; stroke-linejoin:round;">
</g>
<g style="fill:#FFFFFF; fill-opacity:1.0000; 
stroke:#FFFFFF; stroke-width:0.0000; stroke-opacity:1; 
stroke-linecap:round; stroke-linejoin:round;">
<circle cx="4.5500" cy="20.8483" r="0.5500" /> 
</g>
<g style="fill:#FFFFFF; fill-opacity:1.0000; 
stroke:#FFFFFF; stroke-width:0.0212; stroke-opacity:1; 
stroke-linecap:round; stroke-linejoin:round;">
</g>
<g style="fill:#FFFFFF; fill-opacity:1.0000; 
stroke:#FFFFFF; stroke-width:0.0000; stroke-opacity:1; 
stroke-linecap:round; stroke-linejoin:round;">
<circle cx="4.5500" cy="8.8483" r="0.5500" /> 
</g>
<g style="fill:#FFFFFF; fill-opacity:1.0000; 
stroke:#FFFFFF; stroke-width:0.0212; stroke-opacity:1; 
stroke-linecap:round; stroke-linejoin:round;">
</g>
<g style="fill:#FFFFFF; fill-opacity:1.0000; 
stroke:#FFFFFF; stroke-width:0.0000; stroke-opacity:1; 
stroke-linecap:round; stroke-linejoin:round;">
<circle cx="1.4882" cy="17.6686" r="0.7000" /> 
</g>
<g style="fill:#FFFFFF; fill-opacity:1.0000; 
stroke:#FFFFFF; stroke-width:0.0212; stroke-opacity:1; 
stroke-linecap:round; stroke-linejoin:round;">
</g>
<g style="fill:#FFFFFF; fill-opacity:1.0000; 
stroke:#FFFFFF; stroke-width:0.0000; stroke-opacity:1; 
stroke-linecap:round; stroke-linejoin:round;">
<circle cx="17.6882" cy="12.0686" r="0.7000" /> 
</g>
<g style="fill:#FFFFFF; fill-opacity:1.0000; 
stroke:#FFFFFF; stroke-width:0.0212; stroke-opacity:1; 
stroke-linecap:round; stroke-linejoin:round;">
</g>
<g style="fill:#FFFFFF; fill-opacity:1.0000; 
stroke:#FFFFFF; stroke-width:0.0000; stroke-opacity:1; 
stroke-linecap:round; stroke-linejoin:round;">
<circle cx="5.5882" cy="16.1186" r="0.4500" /> 
</g>
<g style="fill:#FFFFFF; fill-opacity:1.0000; 
stroke:#FFFFFF; stroke-width:0.0212; stroke-opacity:1; 
stroke-linecap:round; stroke-linejoin:round;">
</g>
<g style="fill:#FFFFFF; fill-opacity:1.0000; 
stroke:#FFFFFF; stroke-width:0.0000; stroke-opacity:1; 
stroke-linecap:round; stroke-linejoin:round;">
<circle cx="10.5882" cy="16.1186" r="0.4500" /> 
</g>
<g style="fill:#FFFFFF; fill-opacity:1.0000; 
stroke:#FFFFFF; stroke-width:0.0212; stroke-opacity:1; 
stroke-linecap:round; stroke-linejoin:round;">
</g>
<g style="fill:#FFFFFF; fill-opacity:1.0000; 
stroke:#FFFFFF; stroke-width:0.0000; stroke-opacity:1; 
stroke-linecap:round; stroke-linejoin:round;">
<circle cx="13.0882" cy="16.1186" r="0.4500" /> 
</g>
<g style="fill:#FFFFFF; fill-opacity:1.0000; 
stroke:#FFFFFF; stroke-width:0.0212; stroke-opacity:1; 
stroke-linecap:round; stroke-linejoin:round;">
</g>
<g style="fill:#FFFFFF; fill-opacity:1.0000; 
stroke:#FFFFFF; stroke-width:0.0000; stroke-opacity:1; 
stroke-linecap:round; stroke-linejoin:round;">
<circle cx="15.5882" cy="16.1186" r="0.4500" /> 
</g>
<g style="fill:#FFFFFF; fill-opacity:1.0000; 
stroke:#FFFFFF; stroke-width:0.0212; stroke-opacity:1; 
stroke-linecap:round; stroke-linejoin:round;">
</g>
<g style="fill:#FFFFFF; fill-opacity:1.0000; 
stroke:#FFFFFF; stroke-width:0.0000; stroke-opacity:1; 
stroke-linecap:round; stroke-linejoin:round;">
<circle cx="5.5882" cy="13.6186" r="0.4500" /> 
</g>
<g style="fill:#FFFFFF; fill-opacity:1.0000; 
stroke:#FFFFFF; stroke-width:0.0212; stroke-opacity:1; 
stroke-linecap:round; stroke-linejoin:round;">
</g>
<g style="fill:#FFFFFF; fill-opacity:1.0000; 
stroke:#FFFFFF; stroke-width:0.0000; stroke-opacity:1; 
stroke-linecap:round; stroke-linejoin:round;">
<circle cx="10.5882" cy="13.6186" r="0.4500" /> 
</g>
<g style="fill:#FFFFFF; fill-opacity:1.0000; 
stroke:#FFFFFF; stroke-width:0.0212; stroke-opacity:1; 
stroke-linecap:round; stroke-linejoin:round;">
</g>
<g style="fill:#FFFFFF; fill-opacity:1.0000; 
stroke:#FFFFFF; stroke-width:0.0000; stroke-opacity:1; 
stroke-linecap:round; stroke-linejoin:round;">
<circle cx="13.0882" cy="13.6186" r="0.4500" /> 
</g>
<g style="fill:#FFFFFF; fill-opacity:1.0000; 
stroke:#FFFFFF; stroke-width:0.0212; stroke-opacity:1; 
stroke-linecap:round; stroke-linejoin:round;">
</g>
<g style="fill:#FFFFFF; fill-opacity:1.0000; 
stroke:#FFFFFF; stroke-width:0.0000; stroke-opacity:1; 
stroke-linecap:round; stroke-linejoin:round;">
<circle cx="15.5882" cy="13.6186" r="0.4500" /> 
</g>
<g style="fill:#FFFFFF; fill-opacity:1.0000; 
stroke:#FFFFFF; stroke-width:0.0212; stroke-opacity:1; 
stroke-linecap:round; stroke-linejoin:round;">
</g>
<g style="fill:#FFFFFF; fill-opacity:1.0000; 
stroke:#FFFFFF; stroke-width:0.0000; stroke-opacity:1; 
stroke-linecap:round; stroke-linejoin:round;">
<circle cx="14.5500" cy="20.8483" r="0.5500" /> 
</g>
<g style="fill:#FFFFFF; fill-opacity:1.0000; 
stroke:#FFFFFF; stroke-width:0.0212; stroke-opacity:1; 
stroke-linecap:round; stroke-linejoin:round;">
</g>
<g style="fill:#FFFFFF; fill-opacity:1.0000; 
stroke:#FFFFFF; stroke-width:0.0000; stroke-opacity:1; 
stroke-linecap:round; stroke-linejoin:round;">
<circle cx="14.5500" cy="8.8483" r="0.5500" /> 
</g>
<g style="fill:#FFFFFF; fill-opacity:1.0000; 
stroke:#FFFFFF; stroke-width:0.0212; stroke-opacity:1; 
stroke-linecap:round; stroke-linejoin:round;">
</g>
<g style="fill:#000000; fill-opacity:1.0000; 
stroke:#000000; stroke-width:0.0212; stroke-opacity:1; 
stroke-linecap:round; stroke-linejoin:round;">
</g>
<g style="fill:#F2EDA1; fill-opacity:1.0000; 
stroke:#F2EDA1; stroke-width:0.0212; stroke-opacity:1; 
stroke-linecap:round; stroke-linejoin:round;">
</g>
<g style="fill:#F2EDA1; fill-opacity:1.0000; 
stroke:#F2EDA1; stroke-width:0.1500; stroke-opacity:1; 
stroke-linecap:round; stroke-linejoin:round;">
</g>
<g style="fill:#F2EDA1; fill-opacity:0.0; 
stroke:#F2EDA1; stroke-width:0.1500; stroke-opacity:1; 
stroke-linecap:round; stroke-linejoin:round;">
<text x="4.5500" y="19.3483"
textLength="2.1548" font-size="1.3333" lengthAdjust="spacingAndGlyphs"
text-anchor="middle" opacity="0">SS</text>
<g class="stroked-text"><desc>SS</desc>
<path d="M3.7881 19.2554
L3.9310 19.3031
" />
<path d="M3.9310 19.3031
L4.1690 19.3031
" />
<path d="M4.1690 19.3031
L4.2643 19.2554
" />
<path d="M4.2643 19.2554
L4.3119 19.2078
" />
<path d="M4.3119 19.2078
L4.3595 19.1126
" />
<path d="M4.3595 19.1126
L4.3595 19.0174
" />
<path d="M4.3595 19.0174
L4.3119 18.9221
" />
<path d="M4.3119 18.9221
L4.2643 18.8745
" />
<path d="M4.2643 18.8745
L4.1690 18.8269
" />
<path d="M4.1690 18.8269
L3.9786 18.7793
" />
<path d="M3.9786 18.7793
L3.8833 18.7316
" />
<path d="M3.8833 18.7316
L3.8357 18.6840
" />
<path d="M3.8357 18.6840
L3.7881 18.5888
" />
<path d="M3.7881 18.5888
L3.7881 18.4935
" />
<path d="M3.7881 18.4935
L3.8357 18.3983
" />
<path d="M3.8357 18.3983
L3.8833 18.3507
" />
<path d="M3.8833 18.3507
L3.9786 18.3031
" />
<path d="M3.9786 18.3031
L4.2167 18.3031
" />
<path d="M4.2167 18.3031
L4.3595 18.3507
" />
<path d="M4.7405 19.2554
L4.8833 19.3031
" />
<path d="M4.8833 19.3031
L5.1214 19.3031
" />
<path d="M5.1214 19.3031
L5.2167 19.2554
" />
<path d="M5.2167 19.2554
L5.2643 19.2078
" />
<path d="M5.2643 19.2078
L5.3119 19.1126
" />
<path d="M5.3119 19.1126
L5.3119 19.0174
" />
<path d="M5.3119 19.0174
L5.2643 18.9221
" />
<path d="M5.2643 18.9221
L5.2167 18.8745
" />
<path d="M5.2167 18.8745
L5.1214 18.8269
" />
<path d="M5.1214 18.8269
L4.9310 18.7793
" />
<path d="M4.9310 18.7793
L4.8357 18.7316
" />
<path d="M4.8357 18.7316
L4.7881 18.6840
" />
<path d="M4.7881 18.6840
L4.7405 18.5888
" />
<path d="M4.7405 18.5888
L4.7405 18.4935
" />
<path d="M4.7405 18.4935
L4.7881 18.3983
" />
<path d="M4.7881 18.3983
L4.8357 18.3507
" />
<path d="M4.8357 18.3507
L4.9310 18.3031
" />
<path d="M4.9310 18.3031
L5.1690 18.3031
" />
<path d="M5.1690 18.3031
L5.3119 18.3507
" />
</g><text x="4.5500" y="7.3482"
textLength="2.2500" font-size="1.3333" lengthAdjust="spacingAndGlyphs"
text-anchor="middle" opacity="0">HS</text>
<g class="stroked-text"><desc>HS</desc>
<path d="M3.7881 7.3031
L3.7881 6.3031
" />
<path d="M3.7881 6.7793
L4.3595 6.7793
" />
<path d="M4.3595 7.3031
L4.3595 6.3031
" />
<path d="M4.7881 7.2554
L4.9310 7.3031
" />
<path d="M4.9310 7.3031
L5.1690 7.3031
" />
<path d="M5.1690 7.3031
L5.2643 7.2554
" />
<path d="M5.2643 7.2554
L5.3119 7.2078
" />
<path d="M5.3119 7.2078
L5.3595 7.1126
" />
<path d="M5.3595 7.1126
L5.3595 7.0174
" />
<path d="M5.3595 7.0174
L5.3119 6.9221
" />
<path d="M5.3119 6.9221
L5.2643 6.8745
" />
<path d="M5.2643 6.8745
L5.1690 6.8269
" />
<path d="M5.1690 6.8269
L4.9786 6.7793
" />
<path d="M4.9786 6.7793
L4.8833 6.7316
" />
<path d="M4.8833 6.7316
L4.8357 6.6840
" />
<path d="M4.8357 6.6840
L4.7881 6.5888
" />
<path d="M4.7881 6.5888
L4.7881 6.4935
" />
<path d="M4.7881 6.4935
L4.8357 6.3983
" />
<path d="M4.8357 6.3983
L4.8833 6.3507
" />
<path d="M4.8833 6.3507
L4.9786 6.3031
" />
<path d="M4.9786 6.3031
L5.2167 6.3031
" />
<path d="M5.2167 6.3031
L5.3595 6.3507
" />
</g><text x="14.5500" y="7.3482"
textLength="3.3452" font-size="1.3333" lengthAdjust="spacingAndGlyphs"
text-anchor="middle" opacity="0">S in</text>
<g class="stroked-text"><desc>S in</desc>
<path d="M13.1929 7.2554
L13.3357 7.3031
" />
<path d="M13.3357 7.3031
L13.5738 7.3031
" />
<path d="M13.5738 7.3031
L13.6690 7.2554
" />
<path d="M13.6690 7.2554
L13.7167 7.2078
" />
<path d="M13.7167 7.2078
L13.7643 7.1126
" />
<path d="M13.7643 7.1126
L13.7643 7.0174
" />
<path d="M13.7643 7.0174
L13.7167 6.9221
" />
<path d="M13.7167 6.9221
L13.6690 6.8745
" />
<path d="M13.6690 6.8745
L13.5738 6.8269
" />
<path d="M13.5738 6.8269
L13.3833 6.7793
" />
<path d="M13.3833 6.7793
L13.2881 6.7316
" />
<path d="M13.2881 6.7316
L13.2405 6.6840
" />
<path d="M13.2405 6.6840
L13.1929 6.5888
" />
<path d="M13.1929 6.5888
L13.1929 6.4935
" />
<path d="M13.1929 6.4935
L13.2405 6.3983
" />
<path d="M13.2405 6.3983
L13.2881 6.3507
" />
<path d="M13.2881 6.3507
L13.3833 6.3031
" />
<path d="M13.3833 6.3031
L13.6214 6.3031
" />
<path d="M13.6214 6.3031
L13.7643 6.3507
" />
<path d="M14.9548 7.3031
L14.9548 6.6364
" />
<path d="M14.9548 6.3031
L14.9071 6.3507
" />
<path d="M14.9071 6.3507
L14.9548 6.3983
" />
<path d="M14.9548 6.3983
L15.0024 6.3507
" />
<path d="M15.0024 6.3507
L14.9548 6.3031
" />
<path d="M14.9548 6.3031
L14.9548 6.3983
" />
<path d="M15.4310 6.6364
L15.4310 7.3031
" />
<path d="M15.4310 6.7316
L15.4786 6.6840
" />
<path d="M15.4786 6.6840
L15.5738 6.6364
" />
<path d="M15.5738 6.6364
L15.7167 6.6364
" />
<path d="M15.7167 6.6364
L15.8119 6.6840
" />
<path d="M15.8119 6.6840
L15.8595 6.7793
" />
<path d="M15.8595 6.7793
L15.8595 7.3031
" />
</g><text x="14.5500" y="19.3483"
textLength="4.9643" font-size="1.3333" lengthAdjust="spacingAndGlyphs"
text-anchor="middle" opacity="0">SS off</text>
<g class="stroked-text"><desc>SS off</desc>
<path d="M12.3833 19.2554
L12.5262 19.3031
" />
<path d="M12.5262 19.3031
L12.7643 19.3031
" />
<path d="M12.7643 19.3031
L12.8595 19.2554
" />
<path d="M12.8595 19.2554
L12.9071 19.2078
" />
<path d="M12.9071 19.2078
L12.9548 19.1126
" />
<path d="M12.9548 19.1126
L12.9548 19.0174
" />
<path d="M12.9548 19.0174
L12.9071 18.9221
" />
<path d="M12.9071 18.9221
L12.8595 18.8745
" />
<path d="M12.8595 18.8745
L12.7643 18.8269
" />
<path d="M12.7643 18.8269
L12.5738 18.7793
" />
<path d="M12.5738 18.7793
L12.4786 18.7316
" />
<path d="M12.4786 18.7316
L12.4310 18.6840
" />
<path d="M12.4310 18.6840
L12.3833 18.5888
" />
<path d="M12.3833 18.5888
L12.3833 18.4935
" />
<path d="M12.3833 18.4935
L12.4310 18.3983
" />
<path d="M12.4310 18.3983
L12.4786 18.3507
" />
<path d="M12.4786 18.3507
L12.5738 18.3031
" />
<path d="M12.5738 18.3031
L12.8119 18.3031
" />
<path d="M12.8119 18.3031
L12.9548 18.3507
" />
<path d="M13.3357 19.2554
L13.4786 19.3031
" />
<path d="M13.4786 19.3031
L13.7167 19.3031
" />
<path d="M13.7167 19.3031
L13.8119 19.2554
" />
<path d="M13.8119 19.2554
L13.8595 19.2078
" />
<path d="M13.8595 19.2078
L13.9071 19.1126
" />
<path d="M13.9071 19.1126
L13.9071 19.0174
" />
<path d="M13.9071 19.0174
L13.8595 18.9221
" />
<path d="M13.8595 18.9221
L13.8119 18.8745
" />
<path d="M13.8119 18.8745
L13.7167 18.8269
" />
<path d="M13.7167 18.8269
L13.5262 18.7793
" />
<path d="M13.5262 18.7793
L13.4310 18.7316
" />
<path d="M13.4310 18.7316
L13.3833 18.6840
" />
<path d="M13.3833 18.6840
L13.3357 18.5888
" />
<path d="M13.3357 18.5888
L13.3357 18.4935
" />
<path d="M13.3357 18.4935
L13.3833 18.3983
" />
<path d="M13.3833 18.3983
L13.4310 18.3507
" />
<path d="M13.4310 18.3507
L13.5262 18.3031
" />
<path d="M13.5262 18.3031
L13.7643 18.3031
" />
<path d="M13.7643 18.3031
L13.9071 18.3507
" />
<path d="M15.2405 19.3031
L15.1452 19.2554
" />
<path d="M15.1452 19.2554
L15.0976 19.2078
" />
<path d="M15.0976 19.2078
L15.0500 19.1126
" />
<path d="M15.0500 19.1126
L15.0500 18.8269
" />
<path d="M15.0500 18.8269
L15.0976 18.7316
" />
<path d="M15.0976 18.7316
L15.1452 18.6840
" />
<path d="M15.1452 18.6840
L15.2405 18.6364
" />
<path d="M15.2405 18.6364
L15.3833 18.6364
" />
<path d="M15.3833 18.6364
L15.4786 18.6840
" />
<path d="M15.4786 18.6840
L15.5262 18.7316
" />
<path d="M15.5262 18.7316
L15.5738 18.8269
" />
<path d="M15.5738 18.8269
L15.5738 19.1126
" />
<path d="M15.5738 19.1126
L15.5262 19.2078
" />
<path d="M15.5262 19.2078
L15.4786 19.2554
" />
<path d="M15.4786 19.2554
L15.3833 19.3031
" />
<path d="M15.3833 19.3031
L15.2405 19.3031
" />
<path d="M15.8595 18.6364
L16.2405 18.6364
" />
<path d="M16.0024 19.3031
L16.0024 18.4459
" />
<path d="M16.0024 18.4459
L16.0500 18.3507
" />
<path d="M16.0500 18.3507
L16.1452 18.3031
" />
<path d="M16.1452 18.3031
L16.2405 18.3031
" />
<path d="M16.4310 18.6364
L16.8119 18.6364
" />
<path d="M16.5738 19.3031
L16.5738 18.4459
" />
<path d="M16.5738 18.4459
L16.6214 18.3507
" />
<path d="M16.6214 18.3507
L16.7167 18.3031
" />
<path d="M16.7167 18.3031
L16.8119 18.3031
" />
</g><text x="8.1150" y="15.2212"
textLength="3.2976" font-size="1.3333" lengthAdjust="spacingAndGlyphs"
text-anchor="middle" opacity="0">SW2</text>
<g class="stroked-text"><desc>SW2</desc>
<path d="M6.7817 15.1284
L6.9245 15.1761
" />
<path d="M6.9245 15.1761
L7.1626 15.1761
" />
<path d="M7.1626 15.1761
L7.2579 15.1284
" />
<path d="M7.2579 15.1284
L7.3055 15.0808
" />
<path d="M7.3055 15.0808
L7.3531 14.9856
" />
<path d="M7.3531 14.9856
L7.3531 14.8904
" />
<path d="M7.3531 14.8904
L7.3055 14.7951
" />
<path d="M7.3055 14.7951
L7.2579 14.7475
" />
<path d="M7.2579 14.7475
L7.1626 14.6999
" />
<path d="M7.1626 14.6999
L6.9721 14.6523
" />
<path d="M6.9721 14.6523
L6.8769 14.6046
" />
<path d="M6.8769 14.6046
L6.8293 14.5570
" />
<path d="M6.8293 14.5570
L6.7817 14.4618
" />
<path d="M6.7817 14.4618
L6.7817 14.3665
" />
<path d="M6.7817 14.3665
L6.8293 14.2713
" />
<path d="M6.8293 14.2713
L6.8769 14.2237
" />
<path d="M6.8769 14.2237
L6.9721 14.1761
" />
<path d="M6.9721 14.1761
L7.2102 14.1761
" />
<path d="M7.2102 14.1761
L7.3531 14.2237
" />
<path d="M7.6864 14.1761
L7.9245 15.1761
" />
<path d="M7.9245 15.1761
L8.1150 14.4618
" />
<path d="M8.1150 14.4618
L8.3055 15.1761
" />
<path d="M8.3055 15.1761
L8.5436 14.1761
" />
<path d="M8.8769 14.2713
L8.9245 14.2237
" />
<path d="M8.9245 14.2237
L9.0198 14.1761
" />
<path d="M9.0198 14.1761
L9.2579 14.1761
" />
<path d="M9.2579 14.1761
L9.3531 14.2237
" />
<path d="M9.3531 14.2237
L9.4007 14.2713
" />
<path d="M9.4007 14.2713
L9.4483 14.3665
" />
<path d="M9.4483 14.3665
L9.4483 14.4618
" />
<path d="M9.4483 14.4618
L9.4007 14.6046
" />
<path d="M9.4007 14.6046
L8.8293 15.1761
" />
<path d="M8.8293 15.1761
L9.4483 15.1761
" />
</g></g>
<g style="fill:#F2EDA1; fill-opacity:0.0; 
stroke:#F2EDA1; stroke-width:0.1200; stroke-opacity:1; 
stroke-linecap:round; stroke-linejoin:round;">
<path d="M0.6882 15.6686
L0.6882 16.8686
" />
<path d="M0.9882 11.7686
L0.9882 16.8686
" />
<path d="M0.9882 11.7686
L16.8382 11.7686
" />
<path d="M2.3382 17.9687
L18.1882 17.9687
" />
<path d="M2.3382 18.2687
L3.5382 18.2687
" />
<path d="M18.1882 17.9687
L18.1882 12.8686
" />
<g >
</g>
<g >
</g>
<g >
</g>
<g >
</g>
<g >
</g>
<g >
</g>
<g >
</g>
<g >
</g>
<g >
</g>
</g>
<g style="fill:#FFFFFF; fill-opacity:0.0; 
stroke:#FFFFFF; stroke-width:0.1200; stroke-opacity:1; 
stroke-linecap:round; stroke-linejoin:round;">
</g>
<g style="fill:#FFFFFF; fill-opacity:1.0000; 
stroke:#FFFFFF; stroke-width:0.0000; stroke-opacity:1; 
stroke-linecap:round; stroke-linejoin:round;">
<circle cx="4.5500" cy="20.8483" r="0.5500" /> 
</g>
<g style="fill:#FFFFFF; fill-opacity:1.0000; 
stroke:#FFFFFF; stroke-width:0.0212; stroke-opacity:1; 
stroke-linecap:round; stroke-linejoin:round;">
</g>
<g style="fill:#FFFFFF; fill-opacity:1.0000; 
stroke:#FFFFFF; stroke-width:0.0000; stroke-opacity:1; 
stroke-linecap:round; stroke-linejoin:round;">
<circle cx="4.5500" cy="8.8483" r="0.5500" /> 
</g>
<g style="fill:#FFFFFF; fill-opacity:1.0000; 
stroke:#FFFFFF; stroke-width:0.0212; stroke-opacity:1; 
stroke-linecap:round; stroke-linejoin:round;">
</g>
<g style="fill:#FFFFFF; fill-opacity:1.0000; 
stroke:#FFFFFF; stroke-width:0.0000; stroke-opacity:1; 
stroke-linecap:round; stroke-linejoin:round;">
<circle cx="1.4882" cy="17.6686" r="0.7000" /> 
</g>
<g style="fill:#FFFFFF; fill-opacity:1.0000; 
stroke:#FFFFFF; stroke-width:0.0212; stroke-opacity:1; 
stroke-linecap:round; stroke-linejoin:round;">
</g>
<g style="fill:#FFFFFF; fill-opacity:1.0000; 
stroke:#FFFFFF; stroke-width:0.0000; stroke-opacity:1; 
stroke-linecap:round; stroke-linejoin:round;">
<circle cx="17.6882" cy="12.0686" r="0.7000" /> 
</g>
<g style="fill:#FFFFFF; fill-opacity:1.0000; 
stroke:#FFFFFF; stroke-width:0.0212; stroke-opacity:1; 
stroke-linecap:round; stroke-linejoin:round;">
</g>
<g style="fill:#FFFFFF; fill-opacity:1.0000; 
stroke:#FFFFFF; stroke-width:0.0000; stroke-opacity:1; 
stroke-linecap:round; stroke-linejoin:round;">
<circle cx="5.5882" cy="16.1186" r="0.4500" /> 
</g>
<g style="fill:#FFFFFF; fill-opacity:1.0000; 
stroke:#FFFFFF; stroke-width:0.0212; stroke-opacity:1; 
stroke-linecap:round; stroke-linejoin:round;">
</g>
<g style="fill:#FFFFFF; fill-opacity:1.0000; 
stroke:#FFFFFF; stroke-width:0.0000; stroke-opacity:1; 
stroke-linecap:round; stroke-linejoin:round;">
<circle cx="10.5882" cy="16.1186" r="0.4500" /> 
</g>
<g style="fill:#FFFFFF; fill-opacity:1.0000; 
stroke:#FFFFFF; stroke-width:0.0212; stroke-opacity:1; 
stroke-linecap:round; stroke-linejoin:round;">
</g>
<g style="fill:#FFFFFF; fill-opacity:1.0000; 
stroke:#FFFFFF; stroke-width:0.0000; stroke-opacity:1; 
stroke-linecap:round; stroke-linejoin:round;">
<circle cx="13.0882" cy="16.1186" r="0.4500" /> 
</g>
<g style="fill:#FFFFFF; fill-opacity:1.0000; 
stroke:#FFFFFF; stroke-width:0.0212; stroke-opacity:1; 
stroke-linecap:round; stroke-linejoin:round;">
</g>
<g style="fill:#FFFFFF; fill-opacity:1.0000; 
stroke:#FFFFFF; stroke-width:0.0000; stroke-opacity:1; 
stroke-linecap:round; stroke-linejoin:round;">
<circle cx="15.5882" cy="16.1186" r="0.4500" /> 
</g>
<g style="fill:#FFFFFF; fill-opacity:1.0000; 
stroke:#FFFFFF; stroke-width:0.0212; stroke-opacity:1; 
stroke-linecap:round; stroke-linejoin:round;">
</g>
<g style="fill:#FFFFFF; fill-opacity:1.0000; 
stroke:#FFFFFF; stroke-width:0.0000; stroke-opacity:1; 
stroke-linecap:round; stroke-linejoin:round;">
<circle cx="5.5882" cy="13.6186" r="0.4500" /> 
</g>
<g style="fill:#FFFFFF; fill-opacity:1.0000; 
stroke:#FFFFFF; stroke-width:0.0212; stroke-opacity:1; 
stroke-linecap:round; stroke-linejoin:round;">
</g>
<g style="fill:#FFFFFF; fill-opacity:1.0000; 
stroke:#FFFFFF; stroke-width:0.0000; stroke-opacity:1; 
stroke-linecap:round; stroke-linejoin:round;">
<circle cx="10.5882" cy="13.6186" r="0.4500" /> 
</g>
<g style="fill:#FFFFFF; fill-opacity:1.0000; 
stroke:#FFFFFF; stroke-width:0.0212; stroke-opacity:1; 
stroke-linecap:round; stroke-linejoin:round;">
</g>
<g style="fill:#FFFFFF; fill-opacity:1.0000; 
stroke:#FFFFFF; stroke-width:0.0000; stroke-opacity:1; 
stroke-linecap:round; stroke-linejoin:round;">
<circle cx="13.0882" cy="13.6186" r="0.4500" /> 
</g>
<g style="fill:#FFFFFF; fill-opacity:1.0000; 
stroke:#FFFFFF; stroke-width:0.0212; stroke-opacity:1; 
stroke-linecap:round; stroke-linejoin:round;">
</g>
<g style="fill:#FFFFFF; fill-opacity:1.0000; 
stroke:#FFFFFF; stroke-width:0.0000; stroke-opacity:1; 
stroke-linecap:round; stroke-linejoin:round;">
<circle cx="15.5882" cy="13.6186" r="0.4500" /> 
</g>
<g style="fill:#FFFFFF; fill-opacity:1.0000; 
stroke:#FFFFFF; stroke-width:0.0212; stroke-opacity:1; 
stroke-linecap:round; stroke-linejoin:round;">
</g>
<g style="fill:#FFFFFF; fill-opacity:1.0000; 
stroke:#FFFFFF; stroke-width:0.0000; stroke-opacity:1; 
stroke-linecap:round; stroke-linejoin:round;">
<circle cx="14.5500" cy="20.8483" r="0.5500" /> 
</g>
<g style="fill:#FFFFFF; fill-opacity:1.0000; 
stroke:#FFFFFF; stroke-width:0.0212; stroke-opacity:1; 
stroke-linecap:round; stroke-linejoin:round;">
</g>
<g style="fill:#FFFFFF; fill-opacity:1.0000; 
stroke:#FFFFFF; stroke-width:0.0000; stroke-opacity:1; 
stroke-linecap:round; stroke-linejoin:round;">
<circle cx="14.5500" cy="8.8483" r="0.5500" /> 
</g>
<g style="fill:#FFFFFF; fill-opacity:1.0000; 
stroke:#FFFFFF; stroke-width:0.0212; stroke-opacity:1; 
stroke-linecap:round; stroke-linejoin:round;">
</g>
<g style="fill:#000000; fill-opacity:1.0000; 
stroke:#000000; stroke-width:0.0212; stroke-opacity:1; 
stroke-linecap:round; stroke-linejoin:round;">
</g>
<g style="fill:#D0D2CD; fill-opacity:1.0000; 
stroke:#D0D2CD; stroke-width:0.0212; stroke-opacity:1; 
stroke-linecap:round; stroke-linejoin:round;">
</g>
<g style="fill:#D0D2CD; fill-opacity:1.0000; 
stroke:#D0D2CD; stroke-width:0.1000; stroke-opacity:1; 
stroke-linecap:round; stroke-linejoin:round;">
</g>
<g style="fill:#D0D2CD; fill-opacity:0.0; 
stroke:#D0D2CD; stroke-width:0.1000; stroke-opacity:1; 
stroke-linecap:round; stroke-linejoin:round;">
<path d="M19.0500 22.8483
L0.0500 22.8483
" />
<path d="M19.0500 5.8483
L19.0500 22.8483
" />
</g>
<g style="fill:#D0D2CD; fill-opacity:1.0000; 
stroke:#D0D2CD; stroke-width:0.0000; stroke-opacity:1; 
stroke-linecap:round; stroke-linejoin:round;">
<circle cx="0.0500" cy="22.8483" r="0.0500" /> 
</g>
<g style="fill:#D0D2CD; fill-opacity:1.0000; 
stroke:#D0D2CD; stroke-width:0.1000; stroke-opacity:1; 
stroke-linecap:round; stroke-linejoin:round;">
</g>
<g style="fill:#D0D2CD; fill-opacity:0.0; 
stroke:#D0D2CD; stroke-width:0.1000; stroke-opacity:1; 
stroke-linecap:round; stroke-linejoin:round;">
<path d="M0.0500 5.8483
L19.0500 5.8483
" />
<path d="M0.0500 22.8483
L0.0500 5.8483
" />
<g >
</g>
<g >
</g>
<g >
</g>
<g >
</g>
<g >
</g>
<g >
</g>
<g >
</g>
<g >
</g>
<g >
</g>
</g> 
</svg>
