G04 #@! TF.GenerationSoftware,KiCad,Pcbnew,7.0.11-7.0.11~ubuntu22.04.1*
G04 #@! TF.CreationDate,2024-03-24T10:52:56-04:00*
G04 #@! TF.ProjectId,herovco_switchPCB,6865726f-7663-46f5-9f73-776974636850,rev?*
G04 #@! TF.SameCoordinates,Original*
G04 #@! TF.FileFunction,Copper,L2,Bot*
G04 #@! TF.FilePolarity,Positive*
%FSLAX46Y46*%
G04 Gerber Fmt 4.6, Leading zero omitted, Abs format (unit mm)*
G04 Created by KiCad (PCBNEW 7.0.11-7.0.11~ubuntu22.04.1) date 2024-03-24 10:52:56*
%MOMM*%
%LPD*%
G01*
G04 APERTURE LIST*
G04 Aperture macros list*
%AMRoundRect*
0 Rectangle with rounded corners*
0 $1 Rounding radius*
0 $2 $3 $4 $5 $6 $7 $8 $9 X,Y pos of 4 corners*
0 Add a 4 corners polygon primitive as box body*
4,1,4,$2,$3,$4,$5,$6,$7,$8,$9,$2,$3,0*
0 Add four circle primitives for the rounded corners*
1,1,$1+$1,$2,$3*
1,1,$1+$1,$4,$5*
1,1,$1+$1,$6,$7*
1,1,$1+$1,$8,$9*
0 Add four rect primitives between the rounded corners*
20,1,$1+$1,$2,$3,$4,$5,0*
20,1,$1+$1,$4,$5,$6,$7,0*
20,1,$1+$1,$6,$7,$8,$9,0*
20,1,$1+$1,$8,$9,$2,$3,0*%
G04 Aperture macros list end*
G04 #@! TA.AperFunction,ComponentPad*
%ADD10C,2.100000*%
G04 #@! TD*
G04 #@! TA.AperFunction,WasherPad*
%ADD11C,1.600000*%
G04 #@! TD*
G04 #@! TA.AperFunction,ComponentPad*
%ADD12R,1.600000X1.600000*%
G04 #@! TD*
G04 #@! TA.AperFunction,ComponentPad*
%ADD13C,1.600000*%
G04 #@! TD*
G04 #@! TA.AperFunction,ComponentPad*
%ADD14RoundRect,0.250001X-0.799999X-0.799999X0.799999X-0.799999X0.799999X0.799999X-0.799999X0.799999X0*%
G04 #@! TD*
G04 APERTURE END LIST*
D10*
G04 #@! TO.P,J15,1,Pin_1*
G04 #@! TO.N,Board_0-/Octave and sync switches/SOFT_SYNC_OFF_P*
X145000000Y-106500000D03*
G04 #@! TD*
G04 #@! TO.P,J16,1,Pin_1*
G04 #@! TO.N,Board_0-/Octave and sync switches/HARD_SYNCA_P*
X145000000Y-94500000D03*
G04 #@! TD*
D11*
G04 #@! TO.P,SW2,*
G04 #@! TO.N,*
X141938200Y-103320400D03*
X158138200Y-97720400D03*
D12*
G04 #@! TO.P,SW2,1,1*
G04 #@! TO.N,Board_0-/Octave and sync switches/SOFT_SYNC_OFF_P*
X146038200Y-101770400D03*
D13*
G04 #@! TO.P,SW2,2,2*
G04 #@! TO.N,Board_0-/Octave and sync switches/SOFT_SYNCA_P*
X151038200Y-101770400D03*
G04 #@! TO.P,SW2,3,3*
G04 #@! TO.N,Board_0-/Octave and sync switches/SOFT_SYNC_OFF_P*
X153538200Y-101770400D03*
G04 #@! TO.P,SW2,4,4*
G04 #@! TO.N,Board_0-unconnected-(SW2-Pad4)*
X156038200Y-101770400D03*
G04 #@! TO.P,SW2,5,5*
G04 #@! TO.N,Board_0-/Octave and sync switches/HARD_SYNCA_P*
X146038200Y-99270400D03*
G04 #@! TO.P,SW2,6,6*
G04 #@! TO.N,Board_0-/Octave and sync switches/SYNCA_P*
X151038200Y-99270400D03*
G04 #@! TO.P,SW2,7,7*
G04 #@! TO.N,Board_0-unconnected-(SW2-Pad7)*
X153538200Y-99270400D03*
G04 #@! TO.P,SW2,8,8*
G04 #@! TO.N,Board_0-/Octave and sync switches/SOFT_SYNCA_P*
X156038200Y-99270400D03*
G04 #@! TD*
D10*
G04 #@! TO.P,J14,1,Pin_1*
G04 #@! TO.N,Board_0-/Octave and sync switches/SOFT_SYNCA_P*
X155000000Y-106500000D03*
G04 #@! TD*
D14*
G04 #@! TO.P,J13,1,Pin_1*
G04 #@! TO.N,Board_0-/Octave and sync switches/SYNCA_P*
X155000000Y-94500000D03*
G04 #@! TD*
M02*
